{
  "isSynonyms":"N",
  "results":[
     {
        "categoryId":"SWP",
        "category":"Shop With Points",
        "categoryLandingUrl":"https://www.thankyou.com/cms/thankyou/swp.page?pageName=swp",
        "hits":[
           {
              "name":"PayPal",
              "productUrl":"https://www.paypal.com/shopwithpoints"
           },
           {
              "name":"Amazon.com",
              "productUrl":"https://www.amazon.com/citi"
           },
           {
              "name":"Best Buy",
              "productUrl":"http://www.bestbuy.com/site/pay-with-points/pay-with-points-citi/pcmcat748301784704.c?id=pcmcat748301784704"
           }
        ]
     },
     {
        "categoryId":"GIFTCARDS",
        "category":"Gift Cards",
        "categoryLandingUrl":"https://www.thankyou.com/gcProductListing.htm?category=-1839600561",
        "hits":[
           {
              "name":"Carnival Cruise Lines",
              "productUrl":"https://www.thankyou.com/gcProductDetail.htm?productId=7VX6D11YBWD3Z9TS0AR9KNS6TH"
           },
           {
              "name":"Holland America Line",
              "productUrl":"https://www.thankyou.com/gcProductDetail.htm?productId=AV7VFWWYCXQYLVT7D9M00LK581"
           },
           {
              "name":"Saks Fifth Avenue",
              "productUrl":"https://www.thankyou.com/gcProductDetail.htm?productId=3FD94X4KY368XZFTP9TCZV9DPM"
           }
        ]
     },
     {
        "categoryId":"TRAVEL",
        "category":"Travel",
        "categoryLandingUrl":"https://www.thankyou.com/partnerProgramsListing.htm",
        "hits":[
           {
              "name":"Book a hotel",
              "productUrl":"https://travel.thankyou.com/SH/Handlers/ReceptionDesk.ashx?clientharbor=e2c3a536e6814b3e80b68e7d5a65c14d&amp;page=landingpage&amp;landingpage=hotel&amp;src=TYUSENG"
           },
           {
              "name":"Book a car",
              "productUrl":"https://travel.thankyou.com/SH/Handlers/ReceptionDesk.ashx?clientharbor=e2c3a536e6814b3e80b68e7d5a65c14d&amp;page=landingpage&amp;landingpage=car&amp;src=TYUSENG"
           },
           {
              "name":"Book a flight",
              "productUrl":"https://travel.thankyou.com/SH/Handlers/ReceptionDesk.ashx?clientharbor=e2c3a536e6814b3e80b68e7d5a65c14d&amp;page=landingpage&amp;landingpage=air&amp;src=TYUSENG"
           }
        ]
     },
     {
        "categoryId":"MWTR",
        "category":"More Ways to Redeem",
        "categoryLandingUrl":"https://www.thankyou.com/cms.htm?pageName=mwr&amp;src=TYUSENG",
        "hits":[
           {
              "name":"Payment Towards Student Loan",
              "productUrl":"https://www.thankyou.com/tyProductDetail.htm?productId=7000PTSL"
           },
           {
              "name":"Online Bill Pay with Points",
              "productUrl":"https://www.thankyou.com/cms/thankyou/obp.page?pageName=obp&src=TYUSENG"
           },
           {
              "name":"Shop Your Way",
              "productUrl":"https://www.thankyou.com/getPXPartnerDetails.htm?partnerDetailCode=PTXF_SEARS&amp;src=TYUSENG&amp;cmp=nav&amp;lid=pts_trsfr_1|link_int|button|sears"
           }
        ]
     },
     {
        "categoryId":"FAQ",
        "category":"Help and FAQs",
        "categoryLandingUrl":"https://www.thankyou.com/cms/thankyou/help.page?pageName=help&src=TYUSENG",
        "hits":[
           {
              "name":"What types of merchant codes make up the Airline and Hotel category in Citi Premier PayPal?",
              "productUrl":"https://www.thankyou.com/cms/thankyou/help.page?faqCode=FAQ778&pageName=help&src=TYUSENG"
           },
           {
              "name":"How does PayPal the Stanley Smith Barney Rewards program compare to the ThankYou Rewards program?",
              "productUrl":"https://www.thankyou.com/cms/thankyou/help.page?faqCode=FAQ388&pageName=help&src=TYUSENG"
           },
           {
              "name":"How does the Stanley Smith Barney Rewards PayPal program compare to the ThankYou Rewards program program program?",
              "productUrl":"https://www.thankyou.com/cms/thankyou/help.page?faqCode=FAQ388&pageName=help&src=TYUSENG"
           }
        ]
     }
  ]
}