{
  "isSynonyms": "N",
  "suggestedTerm": "",
  "results": [    
    {
	    "categoryId": "SWP",
      "category": "Shop With Points",
      "categoryLandingUrl": "https://www.thankyou.com/cms/thankyou/swp.page?pageName=swp"      
    },	
    {
	    "categoryId": "MWTR",
      "category": "More Ways to Redeem",
      "categoryLandingUrl": "https://www.thankyou.com/cms.htm?pageName=mwr&amp;src=TYUSENG"    
    },
    {
	    "categoryId": "FAQ",
      "category": "Help and FAQs",
      "categoryLandingUrl": "https://www.thankyou.com/cms/thankyou/help.page?pageName=help&src=TYUSENG"      
    }
  ]
}